<svg xmlns="http://www.w3.org/2000/svg" id="prefix__followers" width="23.261" height="24" viewBox="0 0 23.261 24">
    <defs>
        <style>
            .prefix__cls-1{fill:#fff}
        </style>
    </defs>
    <path id="prefix__Path_48388" d="M15.808 72.6a4.441 4.441 0 0 0 1.918-3.6 4.842 4.842 0 0 0-5.052-4.587A4.842 4.842 0 0 0 7.621 69a4.2 4.2 0 0 0 .029.491 4.331 4.331 0 0 0-1.933-.449A3.866 3.866 0 0 0 1.684 72.7a3.506 3.506 0 0 0 1.278 2.671A4.522 4.522 0 0 0 0 79.505v4.259a1.5 1.5 0 0 0 1.558 1.42H18.13a1.733 1.733 0 0 0 1.805-1.646v-5.586a5.762 5.762 0 0 0-4.127-5.352zm-3.135-6.789a3.21 3.21 0 1 1 0 6.389 3.21 3.21 0 1 1 0-6.389zm-6.955 4.624A2.4 2.4 0 0 1 8.224 72.7a2.079 2.079 0 0 1-.071.536 6.027 6.027 0 0 0-1.761 1.651 2.752 2.752 0 0 1-.675.083 2.281 2.281 0 1 1 0-4.54zM1.527 83.764v-4.259a3.28 3.28 0 0 1 3.417-3.115h.707a5.213 5.213 0 0 0-.239 1.562v5.586a1.511 1.511 0 0 0 .022.254H1.558a.032.032 0 0 1-.031-.028zm16.881-.226a.271.271 0 0 1-.279.254H7.217a.271.271 0 0 1-.279-.254v-5.586a4.531 4.531 0 0 1 4.719-4.3h2.031a4.531 4.531 0 0 1 4.719 4.3z" class="prefix__cls-1" data-name="Path 48388" transform="translate(0 -61.184)"/>
    <path id="prefix__Path_48389" d="M401.881 2.124H400.5V.752a.752.752 0 1 0-1.5 0v1.372h-1.383a.752.752 0 0 0 0 1.5H399V5a.752.752 0 1 0 1.5 0V3.628h1.383a.752.752 0 0 0 0-1.5z" class="prefix__cls-1" data-name="Path 48389" transform="translate(-379.371)"/>
</svg>
