<svg xmlns="http://www.w3.org/2000/svg" width="24" height="24" viewBox="0 0 24 24">
    <defs>
        <clipPath id="prefix__clip-path">
            <path id="prefix__Rectangle_7221" d="M0 0H24V24H0z" class="prefix__cls-1" data-name="Rectangle 7221" transform="translate(176 588)"/>
        </clipPath>
        <style>
            .prefix__cls-1{fill:#fff}
        </style>
    </defs>
    <g id="prefix__Mask_Group_542" clip-path="url(#prefix__clip-path)" data-name="Mask Group 542" transform="translate(-176 -588)">
        <g id="prefix__phone" transform="translate(175.989 588)">
            <g id="prefix__Group_26254" data-name="Group 26254" transform="translate(.011)">
                <path id="prefix__Path_48390" d="M23.393 17.7l-2.984-2.984a2.112 2.112 0 0 0-2.984 0l-1.356 1.356a1.6 1.6 0 0 1-2.26 0l-5.878-5.881a1.6 1.6 0 0 1 0-2.26l1.356-1.356a2.108 2.108 0 0 0 0-2.984L6.3.617a2.111 2.111 0 0 0-2.981 0L2.235 1.693a7.616 7.616 0 0 0 0 10.759l9.314 9.319a7.6 7.6 0 0 0 10.759 0l1.085-1.085a2.112 2.112 0 0 0 0-2.986zM4.315 1.612a.7.7 0 0 1 1 0l2.978 2.974a.7.7 0 0 1 0 .995l-.5.5L3.82 2.1zm8.229 19.164L3.23 11.457a6.183 6.183 0 0 1-.388-8.344l3.964 3.964a3 3 0 0 0 .131 4.109l5.878 5.883a3 3 0 0 0 4.109.131l3.964 3.964a6.171 6.171 0 0 1-8.344-.388zm9.856-1.085l-.5.5-3.977-3.981.5-.5a.7.7 0 0 1 .995 0L22.4 18.7a.7.7 0 0 1 0 .991z" class="prefix__cls-1" data-name="Path 48390" transform="translate(-.011)"/>
            </g>
        </g>
    </g>
</svg>
