<svg xmlns="http://www.w3.org/2000/svg" width="16.751" height="12.972" viewBox="0 0 16.751 12.972">
    <g id="prefix__Group_26317" data-name="Group 26317" transform="translate(.5 .581)">
        <g id="prefix__Group_26316" data-name="Group 26316">
            <path id="prefix__Path_48406" fill="#13c66c" stroke="#13c66c" d="M117.64 137.019a.984.984 0 0 0-1.368 0l-9.148 9.148-3.242-3.242a.984.984 0 0 0-1.416 1.368l.024.024 3.938 3.938a.984.984 0 0 0 1.392 0l9.844-9.844a.984.984 0 0 0-.024-1.392z" data-name="Path 48406" transform="translate(-102.19 -136.743)"/>
        </g>
    </g>
</svg>
